<?xml version="1.0" encoding="utf-8"?>
<!-- Generator: Adobe Illustrator 25.2.3, SVG Export Plug-In . SVG Version: 6.00 Build 0)  -->
<svg version="1.1" id="Layer_1" xmlns="http://www.w3.org/2000/svg" xmlns:xlink="http://www.w3.org/1999/xlink" x="0px" y="0px"
	 viewBox="0 0 49.3 24.6" style="enable-background:new 0 0 49.3 24.6;" xml:space="preserve">
<style type="text/css">
	.st0{fill:#2B2E3D;}
</style>
<path class="st0" d="M28.8,13.3c0,0.6-0.5,1-1,1h-2.1c-0.6,0-1-0.5-1-1c0-0.6,0.5-1,1-1h2.1C28.3,12.3,28.8,12.8,28.8,13.3z
	 M19.5,8.2H13l1.3-2.6c0.2-0.5,0-1.1-0.5-1.4c-0.5-0.3-1.1-0.1-1.4,0.4l-2.1,4.1c-0.1,0.1-0.1,0.3-0.1,0.5c0,0.6,0.5,1,1,1h8.2
	c0.6,0,1-0.5,1-1S20.1,8.2,19.5,8.2z M33.9,8.2L33.9,8.2l-9.2,0V5.1c0-0.6-0.5-1-1-1c-0.6,0-1,0.5-1,1v4.1c0,0.6,0.5,1,1,1h10.3
	c0.6,0,1-0.5,1-1C34.9,8.7,34.5,8.2,33.9,8.2z M49.3,15.4c0.1,2.5-1.7,4.7-4.2,5c-0.5,2.8-3.2,4.6-6,4.1c-2.1-0.4-3.7-2-4.1-4H14.3
	c-0.5,2.3-2.5,4.1-5,4.1c-2.5,0-4.6-1.8-5-4.1c0,0,0,0,0,0c-0.8-0.3-2.6-0.8-3.6-2.6C0.4,17.5,0,16.1,0,15.4v-4.1
	c0-2.8,2.3-5.1,5.1-5.1c0.9,0,1.8-0.5,2.3-1.3l1.7-2.6c1-1.4,2.6-2.3,4.3-2.3h14.8c1.2,0,2.3,0.4,3.2,1.1l8.1,6.5
	c0.5,0.4,1.1,0.6,1.8,0.6h1.7C47.1,8.2,49.3,11.9,49.3,15.4z M12.3,19.5c0-1.7-1.4-3.1-3.1-3c-1.7,0-3,1.4-3,3c0,1.7,1.4,3.1,3.1,3
	C11,22.5,12.3,21.2,12.3,19.5z M43.1,19.5c0-1.7-1.4-3.1-3.1-3c-1.7,0-3,1.4-3,3c0,1.7,1.4,3.1,3.1,3C41.8,22.5,43.1,21.2,43.1,19.5
	z M47.2,15.4c0-2.1-1.1-5.1-4.1-5.1h-1.7c-1.1,0-2.2-0.4-3-1.1l-8.1-6.5C29.7,2.3,29,2,28.3,2H13.5c-1,0-2,0.5-2.6,1.4L9.2,6
	c-0.9,1.4-2.4,2.2-4,2.2c-1.7,0-3.1,1.4-3.1,3.1v4.1c0,1.4,0.9,2.6,2.2,2.9c0.2-1,0.7-1.8,1.4-2.4c0,0,0,0,0,0
	c0.2-0.2,0.4-0.4,0.7-0.5c0,0,0.1-0.1,0.1-0.1c0.2-0.1,0.4-0.3,0.7-0.4c0.1,0,0.1-0.1,0.2-0.1c0.2-0.1,0.4-0.2,0.7-0.2
	c0.1,0,0.2-0.1,0.3-0.1c0.2,0,0.4-0.1,0.7-0.1c0.1,0,0.2,0,0.3,0c0,0,0,0,0.1,0c0.1,0,0.3,0,0.4,0c0.2,0,0.4,0,0.6,0.1c0,0,0,0,0,0
	c0.3,0.1,0.5,0.1,0.7,0.2c0.1,0.1,0.3,0.1,0.4,0.2c0.1,0.1,0.2,0.1,0.3,0.2c0.2,0.1,0.3,0.2,0.4,0.3c0.1,0.1,0.1,0.1,0.2,0.2
	c0.5,0.4,0.9,0.9,1.2,1.5c0,0,0,0.1,0,0.1c0.2,0.4,0.4,0.9,0.5,1.4H35c0.6-2.8,3.3-4.6,6-4c2,0.4,3.5,1.9,4,3.9
	C46.4,18,47.3,16.8,47.2,15.4L47.2,15.4z"/>
</svg>
